2023-03-06 11:38:40.653 [info] Log level: Info
2023-03-06 11:38:40.653 [info] Validating found git in: "git"
2023-03-06 11:38:40.653 [info] Using git "2.39.2" from "git"
2023-03-06 11:38:40.653 [info] > git rev-parse --show-toplevel [6ms]
2023-03-06 11:38:40.653 [info] > git rev-parse --git-dir --git-common-dir [1ms]
2023-03-06 11:38:40.675 [info] Open repository: /home/kristof/Documents/GitHub/windows-linux-for-me
2023-03-06 11:38:40.809 [info] > git rev-parse --show-toplevel [121ms]
2023-03-06 11:38:40.835 [info] > git config --get commit.template [56ms]
2023-03-06 11:38:40.876 [info] > git rev-parse --show-toplevel [58ms]
2023-03-06 11:38:40.892 [info] > git for-each-ref --format=%(refname)%00%(upstream:short)%00%(objectname)%00%(upstream:track)%00%(upstream:remotename)%00%(upstream:remoteref) refs/heads/main refs/remotes/main [19ms]
2023-03-06 11:38:40.919 [info] > git rev-parse --show-toplevel [36ms]
2023-03-06 11:38:40.942 [info] > git rev-parse --show-toplevel [9ms]
2023-03-06 11:38:40.951 [info] > git rev-parse --show-toplevel [3ms]
2023-03-06 11:38:40.960 [info] > git rev-parse --show-toplevel [2ms]
2023-03-06 11:38:40.998 [info] > git status -z -uall [87ms]
2023-03-06 11:38:41.036 [info] > git config --get commit.template [4ms]
2023-03-06 11:38:41.052 [info] > git for-each-ref --format=%(refname)%00%(upstream:short)%00%(objectname)%00%(upstream:track)%00%(upstream:remotename)%00%(upstream:remoteref) refs/heads/main refs/remotes/main [5ms]
2023-03-06 11:38:41.104 [info] > git status -z -uall [43ms]
2023-03-06 11:38:41.229 [info] > git check-ignore -v -z --stdin [10ms]
2023-03-06 11:38:41.294 [info] > git show --textconv :Todo List/style.css [27ms]
2023-03-06 11:38:41.299 [info] > git ls-files --stage -- /home/kristof/Documents/GitHub/windows-linux-for-me/Todo List/style.css [8ms]
2023-03-06 11:38:41.329 [info] > git cat-file -s 924964a4a60a14ab18d1af0b84dc60db4714b38a [5ms]
2023-03-06 11:38:51.058 [info] > git check-ignore -v -z --stdin [1ms]
2023-03-06 11:38:52.329 [info] > git show --textconv :javaCraft/index.html [27ms]
2023-03-06 11:38:52.334 [info] > git ls-files --stage -- /home/kristof/Documents/GitHub/windows-linux-for-me/javaCraft/index.html [8ms]
2023-03-06 11:38:52.352 [info] > git cat-file -s e72a041ca88a9a38351c436a14dcf57218f1c782 [2ms]
2023-03-06 11:40:11.293 [info] > git show --textconv :javaCraft/app.js [34ms]
2023-03-06 11:40:11.324 [info] > git ls-files --stage -- /home/kristof/Documents/GitHub/windows-linux-for-me/javaCraft/app.js [33ms]
2023-03-06 11:40:11.355 [info] > git cat-file -s e69de29bb2d1d6434b8b29ae775ad8c2e48c5391 [2ms]
2023-03-06 11:40:12.973 [info] > git show --textconv :javaCraft/GYIK.html [9ms]
2023-03-06 11:40:12.980 [info] > git ls-files --stage -- /home/kristof/Documents/GitHub/windows-linux-for-me/javaCraft/GYIK.html [9ms]
2023-03-06 11:40:12.999 [info] > git cat-file -s 568218b87ffe8dec2a80a82791325574e3f706b9 [11ms]
2023-03-06 11:40:46.156 [info] > git show --textconv :javaCraft/server.css [10ms]
2023-03-06 11:40:46.157 [info] > git ls-files --stage -- /home/kristof/Documents/GitHub/windows-linux-for-me/javaCraft/server.css [1ms]
2023-03-06 11:40:46.164 [info] > git cat-file -s 13800b67a38dd88380bdc11275df998b2756f8a9 [2ms]
2023-03-06 11:40:48.131 [info] > git show --textconv :javaCraft/style.css [21ms]
2023-03-06 11:40:48.133 [info] > git ls-files --stage -- /home/kristof/Documents/GitHub/windows-linux-for-me/javaCraft/style.css [4ms]
2023-03-06 11:40:48.163 [info] > git cat-file -s c83c814f8b4a10d878437094bf1f25451ec1e798 [7ms]
2023-03-06 11:42:00.911 [info] > git show --textconv :javaCraft/team.html [26ms]
2023-03-06 11:42:00.915 [info] > git ls-files --stage -- /home/kristof/Documents/GitHub/windows-linux-for-me/javaCraft/team.html [8ms]
2023-03-06 11:42:00.937 [info] > git cat-file -s 7bd7b18d493a5d935b8c85f8fdf5efb0ed2a6d03 [4ms]
